…
## Quick start

A quick look at how you can get relevant information from `peridefs`
family of `get_` functions

``` r
library(peridefs)

# Retrieve ICD-10 hypertension codes as a tibble
get_htn_v1_codes(code_type = "dx_icd10", format = "tibble")
#> # A tibble: 23 × 3
#>    code_type code  variable_type
#>    <chr>     <chr> <chr>        
#>  1 dx_icd10  I10   condition    
#>  2 dx_icd10  I11   condition    
#>  3 dx_icd10  I110  condition    
#>  4 dx_icd10  I119  condition    
#>  5 dx_icd10  I12   condition    
#>  6 dx_icd10  I120  condition    
#>  7 dx_icd10  I129  condition    
#>  8 dx_icd10  I13   condition    
#>  9 dx_icd10  I130  condition    
#> 10 dx_icd10  I131  condition    
#> # ℹ 13 more rows

# Complement with icd package to look up code explanations
library(icd) # for as.icd9 / as.icd10 / explain_code functions
library(tidyverse) # for map / set_names / enframe functions

get_htn_v1_codes(code_type = 'dx_icd10')[[1]] %>% 
  as.icd10() %>% 
  set_names() %>% 
  map_chr(~explain_code(.x)) %>% 
  enframe(name = 'code', value = 'explanation')
#> # A tibble: 23 × 2
#>    code  explanation                                                            
#>    <chr> <chr>                                                                  
#>  1 I10   Essential (primary) hypertension                                       
#>  2 I11   Hypertensive heart disease                                             
#>  3 I110  Hypertensive heart disease with heart failure                          
#>  4 I119  Hypertensive heart disease without heart failure                       
#>  5 I12   Hypertensive chronic kidney disease                                    
#>  6 I120  Hypertensive chronic kidney disease with stage 5 chronic kidney diseas…
#>  7 I129  Hypertensive chronic kidney disease with stage 1 through stage 4 chron…
#>  8 I13   Hypertensive heart and chronic kidney disease                          
#>  9 I130  Hypertensive heart and chronic kidney disease with heart failure and s…
#> 10 I131  Hypertensive heart and chronic kidney disease without heart failure    
#> # ℹ 13 more rows
…
