Getting Started • peridefs
…
get_htn_v1_codes()
#> $dx_icd9
#>  [1] "401"   "4010"  "4011"  "4019"  "4030"  "40300" "40301" "4031"  "40310"
#> [10] "40311" "4039"  "40390" "40391"
#> 
#> $dx_icd10
#>  [1] "I10"   "I11"   "I110"  "I119"  "I12"   "I120"  "I129"  "I13"   "I130" 
#> [10] "I131"  "I1310" "I1311" "I132"  "I15"   "I150"  "I151"  "I152"  "I158" 
#> [19] "I159"  "I16"   "I160"  "I161"  "I169"

Pass format = "tibble" to get a tidy data frame
instead

get_htn_v1_codes(format = "tibble")
#> # A tibble: 36 × 3
#>    code_type code  variable_type
#>    <chr>     <chr> <chr>        
#>  1 dx_icd9   401   condition    
#>  2 dx_icd9   4010  condition    
#>  3 dx_icd9   4011  condition    
#>  4 dx_icd9   4019  condition    
#>  5 dx_icd9   4030  condition    
#>  6 dx_icd9   40300 condition    
#>  7 dx_icd9   40301 condition    
#>  8 dx_icd9   4031  condition    
#>  9 dx_icd9   40310 condition    
#> 10 dx_icd9   40311 condition    
#> # ℹ 26 more rows
…
