…
Pass `format = "tibble"` to get a tidy data frame instead

``` r

get_htn_v1_codes(format = "tibble")
#> # A tibble: 36 × 3
#>    code_type code  variable_type
#>    <chr>     <chr> <chr>        
#>  1 dx_icd9   401   condition    
#>  2 dx_icd9   4010  condition    
#>  3 dx_icd9   4011  condition    
#>  4 dx_icd9   4019  condition    
#>  5 dx_icd9   4030  condition    
#>  6 dx_icd9   40300 condition    
#>  7 dx_icd9   40301 condition    
#>  8 dx_icd9   4031  condition    
#>  9 dx_icd9   40310 condition    
#> 10 dx_icd9   40311 condition    
#> # ℹ 26 more rows
```
…
